               1759092 considered for utterance an391-mjwl-b
               1117234 considered for utterance an392-mjwl-b
               3729302 considered for utterance an393-mjwl-b
               5560062 considered for utterance an394-mjwl-b
               2690103 considered for utterance an395-mjwl-b
               6146209 considered for utterance an396-miry-b
               4414692 considered for utterance an397-miry-b
               6002540 considered for utterance an398-miry-b
               6693522 considered for utterance an399-miry-b
               2345107 considered for utterance an400-miry-b
               5042877 considered for utterance an401-mdms2-b
               1190638 considered for utterance an402-mdms2-b
               5491943 considered for utterance an403-mdms2-b
               4594393 considered for utterance an404-mdms2-b
               7951073 considered for utterance an405-mdms2-b
               1095925 considered for utterance an416-fjlp-b
               3635223 considered for utterance an417-fjlp-b
               3251893 considered for utterance an418-fjlp-b
               3656162 considered for utterance an419-fjlp-b
               6485293 considered for utterance an420-fjlp-b
               2091401 considered for utterance an421-menk-b
               1886445 considered for utterance an422-menk-b
               5088177 considered for utterance an423-menk-b
               5511488 considered for utterance an424-menk-b
               3398811 considered for utterance an425-menk-b
               3025708 considered for utterance an426-fvap-b
               4756670 considered for utterance an427-fvap-b
               2799460 considered for utterance an428-fvap-b
               5497026 considered for utterance an429-fvap-b
               4726308 considered for utterance an430-fvap-b
               5441095 considered for utterance an431-marh-b
               2891316 considered for utterance an432-marh-b
               4323862 considered for utterance an433-marh-b
               6556750 considered for utterance an434-marh-b
               2746901 considered for utterance an435-marh-b
               2314725 considered for utterance an436-mjgm-b
               3544818 considered for utterance an437-mjgm-b
               4041706 considered for utterance an438-mjgm-b
               3100531 considered for utterance an439-mjgm-b
               1025791 considered for utterance an440-mjgm-b
               4900136 considered for utterance an441-mmxg-b
               1189462 considered for utterance an442-mmxg-b
               1001667 considered for utterance an443-mmxg-b
               6208929 considered for utterance an444-mmxg-b
               4279727 considered for utterance an445-mmxg-b
               4365086 considered for utterance cen1-fjlp-b
               3158532 considered for utterance cen1-fvap-b
               3165994 considered for utterance cen1-marh-b
               6830634 considered for utterance cen1-mdms2-b
               4478368 considered for utterance cen1-menk-b
               4813862 considered for utterance cen1-miry-b
               2555831 considered for utterance cen1-mjgm-b
               3120153 considered for utterance cen1-mjwl-b
               4179061 considered for utterance cen1-mmxg-b
               3846614 considered for utterance cen2-fjlp-b
               3353613 considered for utterance cen2-fvap-b
               2204818 considered for utterance cen2-marh-b
               4930972 considered for utterance cen2-mdms2-b
               2661000 considered for utterance cen2-menk-b
               3159650 considered for utterance cen2-miry-b
               2080177 considered for utterance cen2-mjgm-b
               3368384 considered for utterance cen2-mjwl-b
               3423930 considered for utterance cen2-mmxg-b
               1908175 considered for utterance cen3-fjlp-b
               2194765 considered for utterance cen3-fvap-b
               2533124 considered for utterance cen3-marh-b
               1566986 considered for utterance cen3-mdms2-b
               3433431 considered for utterance cen3-menk-b
               2702496 considered for utterance cen3-miry-b
               2244600 considered for utterance cen3-mjgm-b
               1540017 considered for utterance cen3-mjwl-b
               2059536 considered for utterance cen3-mmxg-b
               3582568 considered for utterance cen4-fjlp-b
               4397103 considered for utterance cen4-fvap-b
               2998609 considered for utterance cen4-marh-b
               9120250 considered for utterance cen4-mdms2-b
               5332598 considered for utterance cen4-menk-b
               6128499 considered for utterance cen4-miry-b
               4152957 considered for utterance cen4-mjgm-b
               3596293 considered for utterance cen4-mjwl-b
               6366196 considered for utterance cen4-mmxg-b
               7466870 considered for utterance cen5-fjlp-b
               4469857 considered for utterance cen5-fvap-b
               5113467 considered for utterance cen5-marh-b
               8281288 considered for utterance cen5-mdms2-b
               6148175 considered for utterance cen5-menk-b
               7420126 considered for utterance cen5-miry-b
               4819131 considered for utterance cen5-mjgm-b
               4117657 considered for utterance cen5-mjwl-b
               4485769 considered for utterance cen5-mmxg-b
               3513960 considered for utterance cen6-fjlp-b
               2552889 considered for utterance cen6-fvap-b
               3092098 considered for utterance cen6-marh-b
               4994083 considered for utterance cen6-mdms2-b
               2872356 considered for utterance cen6-menk-b
               3894840 considered for utterance cen6-miry-b
               3392541 considered for utterance cen6-mjgm-b
               2797251 considered for utterance cen6-mjwl-b
               3092052 considered for utterance cen6-mmxg-b
               5006136 considered for utterance cen7-fjlp-b
               3259300 considered for utterance cen7-fvap-b
               4513436 considered for utterance cen7-marh-b
               8862066 considered for utterance cen7-mdms2-b
               4279326 considered for utterance cen7-menk-b
               5467041 considered for utterance cen7-miry-b
               4059633 considered for utterance cen7-mjgm-b
               3244611 considered for utterance cen7-mjwl-b
               5742099 considered for utterance cen7-mmxg-b
               3717271 considered for utterance cen8-fjlp-b
               3603484 considered for utterance cen8-fvap-b
               3549603 considered for utterance cen8-marh-b
               4449122 considered for utterance cen8-mdms2-b
               3661062 considered for utterance cen8-menk-b
               4253805 considered for utterance cen8-miry-b
               2869735 considered for utterance cen8-mjgm-b
               3393845 considered for utterance cen8-mjwl-b
               3471930 considered for utterance cen8-mmxg-b
                824583 considered for utterance an391-mjwl-b
                247681 considered for utterance an392-mjwl-b
               1072154 considered for utterance an393-mjwl-b
               1532773 considered for utterance an394-mjwl-b
                761955 considered for utterance an395-mjwl-b
               1750105 considered for utterance an396-miry-b
               1242861 considered for utterance an397-miry-b
               1697053 considered for utterance an398-miry-b
               1931954 considered for utterance an399-miry-b
                637837 considered for utterance an400-miry-b
               1436300 considered for utterance an401-mdms2-b
                326771 considered for utterance an402-mdms2-b
               1580042 considered for utterance an403-mdms2-b
               1297289 considered for utterance an404-mdms2-b
               2274671 considered for utterance an405-mdms2-b
                304875 considered for utterance an416-fjlp-b
               1057106 considered for utterance an417-fjlp-b
                940090 considered for utterance an418-fjlp-b
               1065237 considered for utterance an419-fjlp-b
               1880715 considered for utterance an420-fjlp-b
                585838 considered for utterance an421-menk-b
                529529 considered for utterance an422-menk-b
               1446996 considered for utterance an423-menk-b
               1619738 considered for utterance an424-menk-b
                961797 considered for utterance an425-menk-b
                849553 considered for utterance an426-fvap-b
               1375128 considered for utterance an427-fvap-b
                774296 considered for utterance an428-fvap-b
               1555272 considered for utterance an429-fvap-b
               1358104 considered for utterance an430-fvap-b
               1518856 considered for utterance an431-marh-b
                814726 considered for utterance an432-marh-b
               1208219 considered for utterance an433-marh-b
               1848066 considered for utterance an434-marh-b
                758173 considered for utterance an435-marh-b
                638645 considered for utterance an436-mjgm-b
                991381 considered for utterance an437-mjgm-b
               1117045 considered for utterance an438-mjgm-b
                849723 considered for utterance an439-mjgm-b
                271909 considered for utterance an440-mjgm-b
               1381010 considered for utterance an441-mmxg-b
                324274 considered for utterance an442-mmxg-b
                271350 considered for utterance an443-mmxg-b
               1747982 considered for utterance an444-mmxg-b
               1186942 considered for utterance an445-mmxg-b
               1246169 considered for utterance cen1-fjlp-b
                906350 considered for utterance cen1-fvap-b
                910990 considered for utterance cen1-marh-b
               1911268 considered for utterance cen1-mdms2-b
               1265204 considered for utterance cen1-menk-b
               1356625 considered for utterance cen1-miry-b
                715094 considered for utterance cen1-mjgm-b
                867365 considered for utterance cen1-mjwl-b
               1187630 considered for utterance cen1-mmxg-b
               1086055 considered for utterance cen2-fjlp-b
                966869 considered for utterance cen2-fvap-b
                631333 considered for utterance cen2-marh-b
               1394286 considered for utterance cen2-mdms2-b
                753303 considered for utterance cen2-menk-b
                902790 considered for utterance cen2-miry-b
                583513 considered for utterance cen2-mjgm-b
                954677 considered for utterance cen2-mjwl-b
                980676 considered for utterance cen2-mmxg-b
                544655 considered for utterance cen3-fjlp-b
                630891 considered for utterance cen3-fvap-b
                722986 considered for utterance cen3-marh-b
                442257 considered for utterance cen3-mdms2-b
                963566 considered for utterance cen3-menk-b
                770689 considered for utterance cen3-miry-b
                632322 considered for utterance cen3-mjgm-b
                432565 considered for utterance cen3-mjwl-b
                568879 considered for utterance cen3-mmxg-b
               1012094 considered for utterance cen4-fjlp-b
               1245661 considered for utterance cen4-fvap-b
                866167 considered for utterance cen4-marh-b
               2560717 considered for utterance cen4-mdms2-b
               1518656 considered for utterance cen4-menk-b
               1734752 considered for utterance cen4-miry-b
               1210938 considered for utterance cen4-mjgm-b
               1033405 considered for utterance cen4-mjwl-b
               1851828 considered for utterance cen4-mmxg-b
               2143364 considered for utterance cen5-fjlp-b
               1293033 considered for utterance cen5-fvap-b
               1475813 considered for utterance cen5-marh-b
               2307859 considered for utterance cen5-mdms2-b
               1734334 considered for utterance cen5-menk-b
               2095121 considered for utterance cen5-miry-b
               1353281 considered for utterance cen5-mjgm-b
               1153335 considered for utterance cen5-mjwl-b
               1254432 considered for utterance cen5-mmxg-b
               1015576 considered for utterance cen6-fjlp-b
                726969 considered for utterance cen6-fvap-b
                881144 considered for utterance cen6-marh-b
               1408019 considered for utterance cen6-mdms2-b
                826961 considered for utterance cen6-menk-b
               1111318 considered for utterance cen6-miry-b
                961131 considered for utterance cen6-mjgm-b
                775644 considered for utterance cen6-mjwl-b
                873292 considered for utterance cen6-mmxg-b
               1423953 considered for utterance cen7-fjlp-b
                931068 considered for utterance cen7-fvap-b
               1270315 considered for utterance cen7-marh-b
               2540440 considered for utterance cen7-mdms2-b
               1185526 considered for utterance cen7-menk-b
               1556119 considered for utterance cen7-miry-b
               1138126 considered for utterance cen7-mjgm-b
                893785 considered for utterance cen7-mjwl-b
               1591257 considered for utterance cen7-mmxg-b
               1068376 considered for utterance cen8-fjlp-b
               1007074 considered for utterance cen8-fvap-b
               1018580 considered for utterance cen8-marh-b
               1278004 considered for utterance cen8-mdms2-b
               1044611 considered for utterance cen8-menk-b
               1246089 considered for utterance cen8-miry-b
                818378 considered for utterance cen8-mjgm-b
                930239 considered for utterance cen8-mjwl-b
                994568 considered for utterance cen8-mmxg-b
                582473 considered for utterance an391-mjwl-b
                181838 considered for utterance an392-mjwl-b
                737469 considered for utterance an393-mjwl-b
               1067080 considered for utterance an394-mjwl-b
                524395 considered for utterance an395-mjwl-b
               1206969 considered for utterance an396-miry-b
                858435 considered for utterance an397-miry-b
               1172648 considered for utterance an398-miry-b
               1316716 considered for utterance an399-miry-b
                450941 considered for utterance an400-miry-b
                984601 considered for utterance an401-mdms2-b
                227543 considered for utterance an402-mdms2-b
               1076048 considered for utterance an403-mdms2-b
                892605 considered for utterance an404-mdms2-b
               1556459 considered for utterance an405-mdms2-b
                212178 considered for utterance an416-fjlp-b
                716117 considered for utterance an417-fjlp-b
                643874 considered for utterance an418-fjlp-b
                722394 considered for utterance an419-fjlp-b
               1282553 considered for utterance an420-fjlp-b
                407033 considered for utterance an421-menk-b
                367483 considered for utterance an422-menk-b
                999424 considered for utterance an423-menk-b
               1096625 considered for utterance an424-menk-b
                664289 considered for utterance an425-menk-b
                587667 considered for utterance an426-fvap-b
                943674 considered for utterance an427-fvap-b
                544107 considered for utterance an428-fvap-b
               1073226 considered for utterance an429-fvap-b
                926291 considered for utterance an430-fvap-b
               1059116 considered for utterance an431-marh-b
                571158 considered for utterance an432-marh-b
                839237 considered for utterance an433-marh-b
               1283556 considered for utterance an434-marh-b
                530108 considered for utterance an435-marh-b
                454053 considered for utterance an436-mjgm-b
                694147 considered for utterance an437-mjgm-b
                788746 considered for utterance an438-mjgm-b
                600202 considered for utterance an439-mjgm-b
                202799 considered for utterance an440-mjgm-b
                958077 considered for utterance an441-mmxg-b
                228768 considered for utterance an442-mmxg-b
                194405 considered for utterance an443-mmxg-b
               1216394 considered for utterance an444-mmxg-b
                833587 considered for utterance an445-mmxg-b
                858530 considered for utterance cen1-fjlp-b
                623012 considered for utterance cen1-fvap-b
                624835 considered for utterance cen1-marh-b
               1315635 considered for utterance cen1-mdms2-b
                886302 considered for utterance cen1-menk-b
                941406 considered for utterance cen1-miry-b
                497655 considered for utterance cen1-mjgm-b
                603403 considered for utterance cen1-mjwl-b
                811054 considered for utterance cen1-mmxg-b
                748079 considered for utterance cen2-fjlp-b
                661096 considered for utterance cen2-fvap-b
                435561 considered for utterance cen2-marh-b
                961972 considered for utterance cen2-mdms2-b
                520939 considered for utterance cen2-menk-b
                622405 considered for utterance cen2-miry-b
                409077 considered for utterance cen2-mjgm-b
                661623 considered for utterance cen2-mjwl-b
                669577 considered for utterance cen2-mmxg-b
                375281 considered for utterance cen3-fjlp-b
                431427 considered for utterance cen3-fvap-b
                499472 considered for utterance cen3-marh-b
                303957 considered for utterance cen3-mdms2-b
                669475 considered for utterance cen3-menk-b
                528893 considered for utterance cen3-miry-b
                442673 considered for utterance cen3-mjgm-b
                300501 considered for utterance cen3-mjwl-b
                397459 considered for utterance cen3-mmxg-b
                702525 considered for utterance cen4-fjlp-b
                863291 considered for utterance cen4-fvap-b
                591305 considered for utterance cen4-marh-b
               1767284 considered for utterance cen4-mdms2-b
               1048192 considered for utterance cen4-menk-b
               1204332 considered for utterance cen4-miry-b
                820187 considered for utterance cen4-mjgm-b
                705853 considered for utterance cen4-mjwl-b
               1265118 considered for utterance cen4-mmxg-b
               1466488 considered for utterance cen5-fjlp-b
                885934 considered for utterance cen5-fvap-b
               1015367 considered for utterance cen5-marh-b
               1597783 considered for utterance cen5-mdms2-b
               1201985 considered for utterance cen5-menk-b
               1452881 considered for utterance cen5-miry-b
                937845 considered for utterance cen5-mjgm-b
                801407 considered for utterance cen5-mjwl-b
                870611 considered for utterance cen5-mmxg-b
                687601 considered for utterance cen6-fjlp-b
                503646 considered for utterance cen6-fvap-b
                605040 considered for utterance cen6-marh-b
                969085 considered for utterance cen6-mdms2-b
                568399 considered for utterance cen6-menk-b
                763278 considered for utterance cen6-miry-b
                663398 considered for utterance cen6-mjgm-b
                546250 considered for utterance cen6-mjwl-b
                602108 considered for utterance cen6-mmxg-b
                986775 considered for utterance cen7-fjlp-b
                637523 considered for utterance cen7-fvap-b
                877444 considered for utterance cen7-marh-b
               1737669 considered for utterance cen7-mdms2-b
                830216 considered for utterance cen7-menk-b
               1070235 considered for utterance cen7-miry-b
                789324 considered for utterance cen7-mjgm-b
                638856 considered for utterance cen7-mjwl-b
               1107448 considered for utterance cen7-mmxg-b
                730813 considered for utterance cen8-fjlp-b
                701968 considered for utterance cen8-fvap-b
                697792 considered for utterance cen8-marh-b
                877946 considered for utterance cen8-mdms2-b
                722546 considered for utterance cen8-menk-b
                844861 considered for utterance cen8-miry-b
                567432 considered for utterance cen8-mjgm-b
                660580 considered for utterance cen8-mjwl-b
                681259 considered for utterance cen8-mmxg-b
               2310742 considered for utterance an391-mjwl-b
                747876 considered for utterance an392-mjwl-b
               2945987 considered for utterance an393-mjwl-b
               4398005 considered for utterance an394-mjwl-b
               2150721 considered for utterance an395-mjwl-b
               4835140 considered for utterance an396-miry-b
               3411742 considered for utterance an397-miry-b
               4721828 considered for utterance an398-miry-b
               5460672 considered for utterance an399-miry-b
               1806916 considered for utterance an400-miry-b
               4008314 considered for utterance an401-mdms2-b
                909067 considered for utterance an402-mdms2-b
               4490205 considered for utterance an403-mdms2-b
               3658084 considered for utterance an404-mdms2-b
               6364066 considered for utterance an405-mdms2-b
                866085 considered for utterance an416-fjlp-b
               2966121 considered for utterance an417-fjlp-b
               2555592 considered for utterance an418-fjlp-b
               2917885 considered for utterance an419-fjlp-b
               5210317 considered for utterance an420-fjlp-b
               1658250 considered for utterance an421-menk-b
               1530493 considered for utterance an422-menk-b
               4190861 considered for utterance an423-menk-b
               4592361 considered for utterance an424-menk-b
               2770854 considered for utterance an425-menk-b
               2399077 considered for utterance an426-fvap-b
               3752030 considered for utterance an427-fvap-b
               2140536 considered for utterance an428-fvap-b
               4317963 considered for utterance an429-fvap-b
               3695057 considered for utterance an430-fvap-b
               4322724 considered for utterance an431-marh-b
               2363906 considered for utterance an432-marh-b
               3423341 considered for utterance an433-marh-b
               5140532 considered for utterance an434-marh-b
               2166451 considered for utterance an435-marh-b
               1837562 considered for utterance an436-mjgm-b
               2643509 considered for utterance an437-mjgm-b
               3102710 considered for utterance an438-mjgm-b
               2434456 considered for utterance an439-mjgm-b
                803574 considered for utterance an440-mjgm-b
               3958270 considered for utterance an441-mmxg-b
                949562 considered for utterance an442-mmxg-b
                773990 considered for utterance an443-mmxg-b
               4998530 considered for utterance an444-mmxg-b
               3400229 considered for utterance an445-mmxg-b
               3474049 considered for utterance cen1-fjlp-b
               2589884 considered for utterance cen1-fvap-b
               2614969 considered for utterance cen1-marh-b
               5303182 considered for utterance cen1-mdms2-b
               3520268 considered for utterance cen1-menk-b
               3726183 considered for utterance cen1-miry-b
               2026129 considered for utterance cen1-mjgm-b
               2611443 considered for utterance cen1-mjwl-b
               3480198 considered for utterance cen1-mmxg-b
               3043873 considered for utterance cen2-fjlp-b
               2822086 considered for utterance cen2-fvap-b
               1792605 considered for utterance cen2-marh-b
               3836547 considered for utterance cen2-mdms2-b
               2232266 considered for utterance cen2-menk-b
               2488054 considered for utterance cen2-miry-b
               1631648 considered for utterance cen2-mjgm-b
               2627654 considered for utterance cen2-mjwl-b
               2777653 considered for utterance cen2-mmxg-b
               1473245 considered for utterance cen3-fjlp-b
               1748301 considered for utterance cen3-fvap-b
               1945402 considered for utterance cen3-marh-b
               1286139 considered for utterance cen3-mdms2-b
               2664186 considered for utterance cen3-menk-b
               2121603 considered for utterance cen3-miry-b
               1711201 considered for utterance cen3-mjgm-b
               1198106 considered for utterance cen3-mjwl-b
               1575625 considered for utterance cen3-mmxg-b
               2761944 considered for utterance cen4-fjlp-b
               3388529 considered for utterance cen4-fvap-b
               2525462 considered for utterance cen4-marh-b
               7209411 considered for utterance cen4-mdms2-b
               4440934 considered for utterance cen4-menk-b
               4950407 considered for utterance cen4-miry-b
               3338791 considered for utterance cen4-mjgm-b
               2897052 considered for utterance cen4-mjwl-b
               5379900 considered for utterance cen4-mmxg-b
               6029354 considered for utterance cen5-fjlp-b
               3682365 considered for utterance cen5-fvap-b
               4151094 considered for utterance cen5-marh-b
               6613818 considered for utterance cen5-mdms2-b
               4956381 considered for utterance cen5-menk-b
               6011369 considered for utterance cen5-miry-b
               3884208 considered for utterance cen5-mjgm-b
               3344125 considered for utterance cen5-mjwl-b
               3549667 considered for utterance cen5-mmxg-b
               2782480 considered for utterance cen6-fjlp-b
               2046212 considered for utterance cen6-fvap-b
               2450310 considered for utterance cen6-marh-b
               3855103 considered for utterance cen6-mdms2-b
               2417110 considered for utterance cen6-menk-b
               3072655 considered for utterance cen6-miry-b
               2646483 considered for utterance cen6-mjgm-b
               2210980 considered for utterance cen6-mjwl-b
               2454530 considered for utterance cen6-mmxg-b
               3995136 considered for utterance cen7-fjlp-b
               2660273 considered for utterance cen7-fvap-b
               3581904 considered for utterance cen7-marh-b
               7015440 considered for utterance cen7-mdms2-b
               3369423 considered for utterance cen7-menk-b
               4250183 considered for utterance cen7-miry-b
               3040625 considered for utterance cen7-mjgm-b
               2463534 considered for utterance cen7-mjwl-b
               4557436 considered for utterance cen7-mmxg-b
               3008990 considered for utterance cen8-fjlp-b
               2763520 considered for utterance cen8-fvap-b
               2923672 considered for utterance cen8-marh-b
               3473576 considered for utterance cen8-mdms2-b
               2936639 considered for utterance cen8-menk-b
               3425386 considered for utterance cen8-miry-b
               2151266 considered for utterance cen8-mjgm-b
               2656839 considered for utterance cen8-mjwl-b
               2687164 considered for utterance cen8-mmxg-b
                643285 considered for utterance an391-mjwl-b
                196295 considered for utterance an392-mjwl-b
                840765 considered for utterance an393-mjwl-b
               1230241 considered for utterance an394-mjwl-b
                611496 considered for utterance an395-mjwl-b
               1386948 considered for utterance an396-miry-b
                967298 considered for utterance an397-miry-b
               1344385 considered for utterance an398-miry-b
               1585735 considered for utterance an399-miry-b
                494397 considered for utterance an400-miry-b
               1153611 considered for utterance an401-mdms2-b
                252805 considered for utterance an402-mdms2-b
               1299616 considered for utterance an403-mdms2-b
               1041517 considered for utterance an404-mdms2-b
               1836274 considered for utterance an405-mdms2-b
                244600 considered for utterance an416-fjlp-b
                864107 considered for utterance an417-fjlp-b
                739490 considered for utterance an418-fjlp-b
                857484 considered for utterance an419-fjlp-b
               1520760 considered for utterance an420-fjlp-b
                469271 considered for utterance an421-menk-b
                432730 considered for utterance an422-menk-b
               1199597 considered for utterance an423-menk-b
               1352655 considered for utterance an424-menk-b
                784973 considered for utterance an425-menk-b
                676818 considered for utterance an426-fvap-b
               1090911 considered for utterance an427-fvap-b
                592838 considered for utterance an428-fvap-b
               1234290 considered for utterance an429-fvap-b
               1068037 considered for utterance an430-fvap-b
               1215298 considered for utterance an431-marh-b
                667690 considered for utterance an432-marh-b
                964006 considered for utterance an433-marh-b
               1456281 considered for utterance an434-marh-b
                604353 considered for utterance an435-marh-b
                506674 considered for utterance an436-mjgm-b
                740018 considered for utterance an437-mjgm-b
                859346 considered for utterance an438-mjgm-b
                663742 considered for utterance an439-mjgm-b
                212896 considered for utterance an440-mjgm-b
               1121362 considered for utterance an441-mmxg-b
                260999 considered for utterance an442-mmxg-b
                209748 considered for utterance an443-mmxg-b
               1408664 considered for utterance an444-mmxg-b
                944763 considered for utterance an445-mmxg-b
                993556 considered for utterance cen1-fjlp-b
                742661 considered for utterance cen1-fvap-b
                754383 considered for utterance cen1-marh-b
               1502344 considered for utterance cen1-mdms2-b
                999477 considered for utterance cen1-menk-b
               1055276 considered for utterance cen1-miry-b
                567953 considered for utterance cen1-mjgm-b
                731344 considered for utterance cen1-mjwl-b
                991549 considered for utterance cen1-mmxg-b
                863274 considered for utterance cen2-fjlp-b
                812391 considered for utterance cen2-fvap-b
                515030 considered for utterance cen2-marh-b
               1093315 considered for utterance cen2-mdms2-b
                634367 considered for utterance cen2-menk-b
                715688 considered for utterance cen2-miry-b
                458991 considered for utterance cen2-mjgm-b
                749242 considered for utterance cen2-mjwl-b
                800335 considered for utterance cen2-mmxg-b
                422757 considered for utterance cen3-fjlp-b
                504749 considered for utterance cen3-fvap-b
                560045 considered for utterance cen3-marh-b
                365609 considered for utterance cen3-mdms2-b
                752493 considered for utterance cen3-menk-b
                609420 considered for utterance cen3-miry-b
                485031 considered for utterance cen3-mjgm-b
                337095 considered for utterance cen3-mjwl-b
                440754 considered for utterance cen3-mmxg-b
                782951 considered for utterance cen4-fjlp-b
                964232 